…
      cat(sprintf("## %s\n", name))
    Output
      ## jebs_paper
    Code
      print(outputs[[name]], n = 3L)
    Output
      # A multisitedgp_data: 50 sites, paradigm = "site_size"
      # Realized vs intended:
      #   I: realized=0.265 (no target)
      #   R: realized=10.545 (no target)
      #   sigma_tau: target=0.200, realized=0.198, PASS
      #   rho_S: target=0.000, realized=-0.142, PASS
      #   rho_S_marg: realized=-0.142 (no target)
      #   Feasibility: WARN (n_eff=13.755)
      # A tibble: 50 x 7
        site_index    z_j   tau_j tau_j_hat  se_j se2_j   n_j
             <int>  <dbl>   <dbl>     <dbl> <dbl> <dbl> <int>
      1          1 -0.540 -0.108     -0.156 0.338 0.114    35
      2          2 -0.250 -0.0500     0.519 0.603 0.364    11
      3          3 -0.521 -0.104     -0.289 0.343 0.118    34
      # i 47 more rows
      # Use summary(df) for the full diagnostic report.
…
      cat(sprintf("## %s\n", name))
    Output
      ## jebs_strict
    Code
      print(outputs[[name]], n = 3L)
    Output
      # A multisitedgp_data: 100 sites, paradigm = "site_size"
      # Realized vs intended:
      #   I: realized=0.279 (no target)
      #   R: realized=9.062 (no target)
      #   sigma_tau: target=0.150, realized=0.135, WARN
      #   rho_S: target=0.000, realized=-0.020, PASS
      #   rho_S_marg: realized=-0.020 (no target)
      #   Feasibility: WARN (n_eff=28.883)
      # A tibble: 100 x 7
        site_index    z_j   tau_j tau_j_hat  se_j  se2_j   n_j
             <int>  <dbl>   <dbl>     <dbl> <dbl>  <dbl> <int>
      1          1  0.328  0.0491    0.0473 0.167 0.0278   144
      2          2 -0.205 -0.0307   -0.562  0.231 0.0533    75
      3          3 -0.957 -0.144    -0.154  0.280 0.0784    51
      # i 97 more rows
      # Use summary(df) for the full diagnostic report.
…
      cat(sprintf("## %s\n", name))
    Output
      ## education_modest
    Code
      print(outputs[[name]], n = 3L)
    Output
      # A multisitedgp_data: 50 sites, paradigm = "site_size"
      # Realized vs intended:
      #   I: realized=0.277 (no target)
      #   R: realized=10.583 (no target)
      #   sigma_tau: target=0.200, realized=0.219, WARN
      #   rho_S: target=0.000, realized=-0.156, PASS
      #   rho_S_marg: realized=-0.156 (no target)
      #   Feasibility: WARN (n_eff=14.431)
      # A tibble: 50 x 7
        site_index    z_j   tau_j tau_j_hat  se_j  se2_j   n_j
             <int>  <dbl>   <dbl>     <dbl> <dbl>  <dbl> <int>
      1          1  0.586  0.117      0.175 0.260 0.0678    59
      2          2  0.709  0.142     -0.228 0.320 0.103     39
      3          3 -0.109 -0.0219     0.204 0.535 0.286     14
      # i 47 more rows
      # Use summary(df) for the full diagnostic report.
…
      cat(sprintf("## %s\n", name))
    Output
      ## walters_2024
    Code
      print(outputs[[name]], n = 3L)
    Output
      # A multisitedgp_data: 46 sites, paradigm = "site_size"
      # Realized vs intended:
      #   I: realized=0.783 (no target)
      #   R: realized=4.270 (no target)
      #   sigma_tau: target=0.197, realized=0.168, WARN
      #   rho_S: target=0.000, realized=0.145, PASS
      #   rho_S_marg: realized=0.145 (no target)
      #   Feasibility: PASS (n_eff=35.828)
      # A tibble: 46 x 7
        site_index    z_j   tau_j tau_j_hat  se_j  se2_j   n_j
             <int>  <dbl>   <dbl>     <dbl> <dbl>  <dbl> <int>
      1          1 -0.626 -0.123    0.00124 0.107 0.0115   208
      2          2  0.184  0.0362   0.122   0.122 0.015    160
      3          3 -0.836 -0.165    0.0176  0.115 0.0132   182
      # i 43 more rows
      # Use summary(df) for the full diagnostic report.
…
      cat(sprintf("## %s\n", name))
    Output
      ## small_area_estimation
    Code
      print(outputs[[name]], n = 3L)
    Output
      # A multisitedgp_meta: 30 sites, paradigm = "direct"
      # Realized vs intended:
      #   I: target=0.200, realized=0.200, PASS
      #   R: target=3.000, realized=3.000, PASS
      #   sigma_tau: target=0.200, realized=0.251, FAIL
      #   rho_S: target=0.000, realized=0.413, WARN
      #   rho_S_marg: realized=0.413 (no target)
      #   Feasibility: WARN (n_eff=6.153)
      # A tibble: 30 x 7
        site_index    z_j   tau_j tau_j_hat  se_j se2_j   n_j
             <int>  <dbl>   <dbl>     <dbl> <dbl> <dbl> <int>
      1          1  1.37   0.274     0.552  0.444 0.197    NA
      2          2 -0.565 -0.113    -0.0945 0.488 0.238    NA
      3          3  0.363  0.0726    0.200  0.419 0.176    NA
      # i 27 more rows
      # Use summary(df) for the full diagnostic report.
…
# print and summary snapshot a direct meta-analysis preset

    Code
      print(out, n = 3L)
    Output
      # A multisitedgp_meta: 50 sites, paradigm = "direct"
      # Realized vs intended:
      #   I: target=0.300, realized=0.300, PASS
      #   R: target=1.500, realized=1.500, PASS
      #   sigma_tau: target=0.200, realized=0.200, PASS
      #   rho_S: target=0.000, realized=0.073, PASS
      #   rho_S_marg: realized=0.073 (no target)
      #   Feasibility: WARN (n_eff=15.030)
      # A tibble: 50 x 7
        site_index    z_j  tau_j tau_j_hat  se_j se2_j   n_j
             <int>  <dbl>  <dbl>     <dbl> <dbl> <dbl> <int>
      1          1 0.0686 0.0137    0.0940 0.324 0.105    NA
      2          2 1.54   0.308     0.179  0.327 0.107    NA
      3          3 1.75   0.349     0.560  0.331 0.110    NA
      # i 47 more rows
      # Use summary(df) for the full diagnostic report.
…
# print and summary snapshot covariate two-number reporting

    Code
      print(out, n = 3L)
    Output
      # A multisitedgp_data: 25 sites, paradigm = "site_size"
      # Realized vs intended:
      #   I: realized=0.317 (no target)
      #   R: realized=13.000 (no target)
      #   sigma_tau: target=0.200, realized=0.166, FAIL
      #   rho_S: target=0.300, realized=0.299, PASS
      #   rho_S_marg: realized=0.213 (no target)
      #   Feasibility: WARN (n_eff=8.292)
      # A tibble: 25 x 8
        site_index    z_j    tau_j tau_j_hat  se_j  se2_j   n_j x_site
             <int>  <dbl>    <dbl>     <dbl> <dbl>  <dbl> <int>  <dbl>
      1          1  0.337 -0.0827    -0.0573 0.210 0.0440    91 -1    
      2          2 -0.398 -0.217     -0.723  0.298 0.0889    45 -0.917
      3          3  0.589 -0.00719    0.415  0.324 0.105     38 -0.833
      # i 22 more rows
      # Use summary(df) for the full diagnostic report.
…
